amplifier/scope_data/ALL0000/F0000CH1.CSV

Record Length,2.500000e+03,,  -0.000000125000,   8.40000,
Sample Interval,1.000000e-10,,  -0.000000124900,   8.40000,
Trigger Point,1.250000000000e+03,,  -0.000000124800,   8.32000,
,,,  -0.000000124700,   8.32000,
,,,  -0.000000124600,   8.32000,
,,,  -0.000000124500,   8.24000,
Source,CH1,,  -0.000000124400,   8.24000,
Vertical Units,V,,  -0.000000124300,   8.16000,
Vertical Scale,2.000000e+00,,  -0.000000124200,   8.16000,
Vertical Offset,-3.680000e+00,,  -0.000000124100,   8.16000,
Horizontal Units,s,,  -0.000000124000,   8.08000,
Horizontal Scale,2.500000e-08,,  -0.000000123900,   8.00000,
Pt Fmt,Y,,  -0.000000123800,   8.00000,
Yzero,0.000000e+00,,  -0.000000123700,   7.92000,
Probe Atten,1.000000e+01,,  -0.000000123600,   7.92000,
Model Number,TDS1012B,,  -0.000000123500,   7.84000,
Serial Number,C063592,,  -0.000000123400,   7.76000,
Firmware Version,FV:v22.01,,  -0.000000123300,   7.68000,
,,,-00.000000123200,   7.68000,
,,,-00.000000123100,   7.60000,
,,,-00.000000123000,   7.52000,
,,,-00.000000122900,   7.44000,
,,,-00.000000122800,   7.36000,
,,,-00.000000122700,   7.28000,
,,,-00.000000122600,   7.20000,
,,,-00.000000122500,   7.12000,
,,,-00.000000122400,   7.04000,
,,,-00.000000122300,   6.88000,
,,,-00.000000122200,   6.80000,
,,,-00.000000122100,   6.72000,
,,,-00.000000122000,   6.64000,
,,,-00.000000121900,   6.56000,
,,,-00.000000121800,   6.40000,
,,,-00.000000121700,   6.32000,
,,,-00.000000121600,   6.24000,
,,,-00.000000121500,   6.08000,
,,,-00.000000121400,   6.00000,
,,,-00.000000121300,   5.84000,
,,,-00.000000121200,   5.76000,
,,,-00.000000121100,   5.60000,
,,,-00.000000121000,   5.52000,
,,,-00.000000120900,   5.36000,
,,,-00.000000120800,   5.28000,
,,,-00.000000120700,   5.12000,
,,,-00.000000120600,   5.04000,
,,,-00.000000120500,   4.88000,
,,,-00.000000120400,   4.72000,
,,,-00.000000120300,   4.64000,
,,,-00.000000120200,   4.48000,
,,,-00.000000120100,   4.40000,
,,,-00.000000120000,   4.24000,
,,,-00.000000119900,   4.08000,
,,,-00.000000119800,   4.00000,
,,,-00.000000119700,   3.84000,
,,,-00.000000119600,   3.76000,
,,,-00.000000119500,   3.60000,
,,,-00.000000119400,   3.52000,
,,,-00.000000119300,   3.36000,
,,,-00.000000119200,   3.28000,
,,,-00.000000119100,   3.20000,
,,,-00.000000119000,   3.12000,
,,,-00.000000118900,   2.96000,
,,,-00.000000118800,   2.88000,
,,,-00.000000118700,   2.80000,
,,,-00.000000118600,   2.72000,
,,,-00.000000118500,   2.56000,
,,,-00.000000118400,   2.48000,
,,,-00.000000118300,   2.40000,
,,,-00.000000118200,   2.24000,
,,,-00.000000118100,   2.16000,
,,,-00.000000118000,   2.08000,
,,,-00.000000117900,   2.00000,
,,,-00.000000117800,   1.92000,
,,,-00.000000117700,   1.84000,
,,,-00.000000117600,   1.76000,
,,,-00.000000117500,   1.68000,
,,,-00.000000117400,   1.60000,
,,,-00.000000117300,   1.52000,
,,,-00.000000117200,   1.52000,
,,,-00.000000117100,   1.44000,
,,,-00.000000117000,   1.36000,
,,,-00.000000116900,   1.36000,
,,,-00.000000116800,   1.28000,
,,,-00.000000116700,   1.28000,
,,,-00.000000116600,   1.28000,
,,,-00.000000116500,   1.20000,
,,,-00.000000116400,   1.20000,
,,,-00.000000116300,   1.20000,
,,,-00.000000116200,   1.20000,
,,,-00.000000116100,   1.20000,
,,,-00.000000116000,   1.20000,
,,,-00.000000115900,   1.20000,
,,,-00.000000115800,   1.20000,
,,,-00.000000115700,   1.20000,
,,,-00.000000115600,   1.20000,
,,,-00.000000115500,   1.20000,
,,,-00.000000115400,   1.20000,
,,,-00.000000115300,   1.20000,
,,,-00.000000115200,   1.20000,
,,,-00.000000115100,   1.20000,
,,,-00.000000115000,   1.20000,
,,,-00.000000114900,   1.20000,
,,,-00.000000114800,   1.20000,
,,,-00.000000114700,   1.20000,
,,,-00.000000114600,   1.28000,
,,,-00.000000114500,   1.28000,
,,,-00.000000114400,   1.28000,
,,,-00.000000114300,   1.36000,
,,,-00.000000114200,   1.36000,
,,,-00.000000114100,   1.44000,
,,,-00.000000114000,   1.44000,
,,,-00.000000113900,   1.52000,
,,,-00.000000113800,   1.52000,
,,,-00.000000113700,   1.60000,
,,,-00.000000113600,   1.68000,
,,,-00.000000113500,   1.68000,
,,,-00.000000113400,   1.76000,
,,,-00.000000113300,   1.76000,
,,,-00.000000113200,   1.84000,
,,,-00.000000113100,   1.84000,
,,,-00.000000113000,   1.92000,
,,,-00.000000112900,   2.00000,
,,,-00.000000112800,   2.00000,
,,,-00.000000112700,   2.08000,
,,,-00.000000112600,   2.16000,
,,,-00.000000112500,   2.16000,
,,,-00.000000112400,   2.24000,
,,,-00.000000112300,   2.32000,
,,,-00.000000112200,   2.32000,
,,,-00.000000112100,   2.40000,
,,,-00.000000112000,   2.48000,
,,,-00.000000111900,   2.56000,
,,,-00.000000111800,   2.56000,
,,,-00.000000111700,   2.64000,
,,,-00.000000111600,   2.72000,
,,,-00.000000111500,   2.72000,
,,,-00.000000111400,   2.80000,
,,,-00.000000111300,   2.88000,
,,,-00.000000111200,   2.88000,
,,,-00.000000111100,   2.96000,
,,,-00.000000111000,   2.96000,
,,,-00.000000110900,   3.04000,
,,,-00.000000110800,   3.12000,
,,,-00.000000110700,   3.12000,
,,,-00.000000110600,   3.20000,
,,,-00.000000110500,   3.20000,
,,,-00.000000110400,   3.28000,
,,,-00.000000110300,   3.28000,
,,,-00.000000110200,   3.36000,
,,,-00.000000110100,   3.36000,
,,,-00.000000110000,   3.44000,
,,,-00.000000109900,   3.44000,
,,,-00.000000109800,   3.52000,
,,,-00.000000109700,   3.52000,
,,,-00.000000109600,   3.60000,
,,,-00.000000109500,   3.60000,
,,,-00.000000109400,   3.68000,
,,,-00.000000109300,   3.68000,
,,,-00.000000109200,   3.76000,
,,,-00.000000109100,   3.76000,
,,,-00.000000109000,   3.84000,
,,,-00.000000108900,   3.84000,
,,,-00.000000108800,   3.92000,
,,,-00.000000108700,   4.00000,
,,,-00.000000108600,   4.08000,
,,,-00.000000108500,   4.16000,
,,,-00.000000108400,   4.16000,
,,,-00.000000108300,   4.24000,
,,,-00.000000108200,   4.32000,
,,,-00.000000108100,   4.48000,
,,,-00.000000108000,   4.56000,
,,,-00.000000107900,   4.64000,
,,,-00.000000107800,   4.72000,
,,,-00.000000107700,   4.80000,
,,,-00.000000107600,   4.96000,
,,,-00.000000107500,   5.04000,
,,,-00.000000107400,   5.12000,
,,,-00.000000107300,   5.28000,
,,,-00.000000107200,   5.36000,
,,,-00.000000107100,   5.44000,
,,,-00.000000107000,   5.60000,
,,,-00.000000106900,   5.68000,
,,,-00.000000106800,   5.84000,
,,,-00.000000106700,   5.92000,
,,,-00.000000106600,   6.08000,
,,,-00.000000106500,   6.16000,
,,,-00.000000106400,   6.32000,
,,,-00.000000106300,   6.40000,
,,,-00.000000106200,   6.56000,
,,,-00.000000106100,   6.64000,
,,,-00.000000106000,   6.80000,
,,,-00.000000105900,   6.96000,
,,,-00.000000105800,   7.04000,
,,,-00.000000105700,   7.20000,
,,,-00.000000105600,   7.36000,
,,,-00.000000105500,   7.44000,
,,,-00.000000105400,   7.60000,
,,,-00.000000105300,   7.76000,
,,,-00.000000105200,   7.84000,
,,,-00.000000105100,   8.00000,
,,,-00.000000105000,   8.08000,
,,,-00.000000104900,   8.24000,
,,,-00.000000104800,   8.40000,
,,,-00.000000104700,   8.48000,
,,,-00.000000104600,   8.64000,
,,,-00.000000104500,   8.72000,
,,,-00.000000104400,   8.88000,
,,,-00.000000104300,   8.96000,
,,,-00.000000104200,   9.12000,
,,,-00.000000104100,   9.20000,
,,,-00.000000104000,   9.28000,
,,,-00.000000103900,   9.44000,
,,,-00.000000103800,   9.52000,
,,,-00.000000103700,   9.60000,
,,,-00.000000103600,   9.76000,
,,,-00.000000103500,   9.84000,
,,,-00.000000103400,   9.92000,
,,,-00.000000103300,  10.00000,
,,,-00.000000103200,  10.08000,
,,,-00.000000103100,  10.24000,
,,,-00.000000103000,  10.32000,
,,,-00.000000102900,  10.40000,
,,,-00.000000102800,  10.48000,
,,,-00.000000102700,  10.56000,
,,,-00.000000102600,  10.64000,
,,,-00.000000102500,  10.72000,
,,,-00.000000102400,  10.72000,
,,,-00.000000102300,  10.80000,
,,,-00.000000102200,  10.88000,
,,,-00.000000102100,  10.96000,
,,,-00.000000102000,  10.96000,
,,,-00.000000101900,  11.04000,
,,,-00.000000101800,  11.12000,
,,,-00.000000101700,  11.12000,
,,,-00.000000101600,  11.20000,
,,,-00.000000101500,  11.20000,
,,,-00.000000101400,  11.20000,
,,,-00.000000101300,  11.20000,
,,,-00.000000101200,  11.28000,
,,,-00.000000101100,  11.28000,
,,,-00.000000101000,  11.28000,
,,,-00.000000100900,  11.28000,
,,,-00.000000100800,  11.28000,
,,,-00.000000100700,  11.28000,
,,,-00.000000100600,  11.28000,
,,,-00.000000100500,  11.28000,
,,,-00.000000100400,  11.28000,
,,,-00.000000100300,  11.28000,
,,,-00.000000100200,  11.28000,
,,,-00.000000100100,  11.20000,
,,,-00.000000100000,  11.20000,
,,,-00.000000099900,  11.20000,
,,,-00.000000099800,  11.20000,
,,,-00.000000099700,  11.20000,
,,,-00.000000099600,  11.20000,
,,,-00.000000099500,  11.12000,
,,,-00.000000099400,  11.12000,
,,,-00.000000099300,  11.12000,
,,,-00.000000099200,  11.04000,
,,,-00.000000099100,  11.04000,
,,,-00.000000099000,  11.04000,
,,,-00.000000098900,  10.96000,
,,,-00.000000098800,  10.96000,
,,,-00.000000098700,  10.88000,
,,,-00.000000098600,  10.88000,
,,,-00.000000098500,  10.80000,
,,,-00.000000098400,  10.72000,
,,,-00.000000098300,  10.72000,
,,,-00.000000098200,  10.64000,
,,,-00.000000098100,  10.56000,
,,,-00.000000098000,  10.56000,
,,,-00.000000097900,  10.48000,
,,,-00.000000097800,  10.40000,
,,,-00.000000097700,  10.32000,
,,,-00.000000097600,  10.32000,
,,,-00.000000097500,  10.24000,
,,,-00.000000097400,  10.16000,
,,,-00.000000097300,  10.08000,
,,,-00.000000097200,  10.08000,
,,,-00.000000097100,  10.00000,
,,,-00.000000097000,   9.92000,
,,,-00.000000096900,   9.92000,
,,,-00.000000096800,   9.84000,
,,,-00.000000096700,   9.76000,
,,,-00.000000096600,   9.76000,
,,,-00.000000096500,   9.68000,
,,,-00.000000096400,   9.60000,
,,,-00.000000096300,   9.60000,
,,,-00.000000096200,   9.52000,
,,,-00.000000096100,   9.52000,
,,,-00.000000096000,   9.44000,
,,,-00.000000095900,   9.36000,
,,,-00.000000095800,   9.36000,
,,,-00.000000095700,   9.28000,
,,,-00.000000095600,   9.28000,
,,,-00.000000095500,   9.20000,
,,,-00.000000095400,   9.20000,
,,,-00.000000095300,   9.12000,
,,,-00.000000095200,   9.12000,
,,,-00.000000095100,   9.04000,
,,,-00.000000095000,   9.04000,
,,,-00.000000094900,   8.96000,
,,,-00.000000094800,   8.96000,
,,,-00.000000094700,   8.88000,
,,,-00.000000094600,   8.88000,
,,,-00.000000094500,   8.80000,
,,,-00.000000094400,   8.80000,
,,,-00.000000094300,   8.72000,
,,,-00.000000094200,   8.72000,
,,,-00.000000094100,   8.64000,
,,,-00.000000094000,   8.64000,
,,,-00.000000093900,   8.56000,
,,,-00.000000093800,   8.56000,
,,,-00.000000093700,   8.48000,
,,,-00.000000093600,   8.48000,
,,,-00.000000093500,   8.40000,
,,,-00.000000093400,   8.40000,
,,,-00.000000093300,   8.32000,
,,,-00.000000093200,   8.32000,
,,,-00.000000093100,   8.32000,
,,,-00.000000093000,   8.24000,
,,,-00.000000092900,   8.24000,
,,,-00.000000092800,   8.16000,
,,,-00.000000092700,   8.16000,
,,,-00.000000092600,   8.16000,
,,,-00.000000092500,   8.08000,
,,,-00.000000092400,   8.08000,
,,,-00.000000092300,   8.00000,
,,,-00.000000092200,   8.00000,
,,,-00.000000092100,   7.92000,
,,,-00.000000092000,   7.92000,
,,,-00.000000091900,   7.84000,
,,,-00.000000091800,   7.84000,
,,,-00.000000091700,   7.76000,
,,,-00.000000091600,   7.76000,
,,,-00.000000091500,   7.68000,
,,,-00.000000091400,   7.60000,
,,,-00.000000091300,   7.60000,
,,,-00.000000091200,   7.52000,
,,,-00.000000091100,   7.44000,
,,,-00.000000091000,   7.36000,
,,,-00.000000090900,   7.28000,
,,,-00.000000090800,   7.20000,
,,,-00.000000090700,   7.20000,
,,,-00.000000090600,   7.12000,
,,,-00.000000090500,   7.04000,
,,,-00.000000090400,   6.96000,
,,,-00.000000090300,   6.88000,
,,,-00.000000090200,   6.80000,
,,,-00.000000090100,   6.72000,
,,,-00.000000090000,   6.56000,
,,,-00.000000089900,   6.48000,
,,,-00.000000089800,   6.40000,
,,,-00.000000089700,   6.32000,
,,,-00.000000089600,   6.24000,
,,,-00.000000089500,   6.08000,
,,,-00.000000089400,   6.00000,
,,,-00.000000089300,   5.92000,
,,,-00.000000089200,   5.76000,
,,,-00.000000089100,   5.68000,
,,,-00.000000089000,   5.52000,
,,,-00.000000088900,   5.44000,
,,,-00.000000088800,   5.36000,
,,,-00.000000088700,   5.20000,
,,,-00.000000088600,   5.12000,
,,,-00.000000088500,   4.96000,
,,,-00.000000088400,   4.88000,
,,,-00.000000088300,   4.72000,
,,,-00.000000088200,   4.64000,
,,,-00.000000088100,   4.56000,
,,,-00.000000088000,   4.40000,
,,,-00.000000087900,   4.32000,
,,,-00.000000087800,   4.16000,
,,,-00.000000087700,   4.08000,
,,,-00.000000087600,   4.00000,
,,,-00.000000087500,   3.84000,
,,,-00.000000087400,   3.76000,
,,,-00.000000087300,   3.60000,
,,,-00.000000087200,   3.52000,
,,,-00.000000087100,   3.44000,
,,,-00.000000087000,   3.28000,
,,,-00.000000086900,   3.20000,
,,,-00.000000086800,   3.12000,
,,,-00.000000086700,   3.04000,
,,,-00.000000086600,   2.96000,
,,,-00.000000086500,   2.88000,
,,,-00.000000086400,   2.80000,
,,,-00.000000086300,   2.64000,
,,,-00.000000086200,   2.64000,
,,,-00.000000086100,   2.56000,
,,,-00.000000086000,   2.48000,
,,,-00.000000085900,   2.40000,
,,,-00.000000085800,   2.32000,
,,,-00.000000085700,   2.24000,
,,,-00.000000085600,   2.24000,
,,,-00.000000085500,   2.16000,
,,,-00.000000085400,   2.08000,
,,,-00.000000085300,   2.00000,
,,,-00.000000085200,   2.00000,
,,,-00.000000085100,   1.92000,
,,,-00.000000085000,   1.92000,
,,,-00.000000084900,   1.84000,
,,,-00.000000084800,   1.84000,
,,,-00.000000084700,   1.76000,
,,,-00.000000084600,   1.76000,
,,,-00.000000084500,   1.68000,
,,,-00.000000084400,   1.68000,
,,,-00.000000084300,   1.60000,
,,,-00.000000084200,   1.60000,
,,,-00.000000084100,   1.60000,
,,,-00.000000084000,   1.52000,
,,,-00.000000083900,   1.52000,
,,,-00.000000083800,   1.52000,
,,,-00.000000083700,   1.52000,
,,,-00.000000083600,   1.52000,
,,,-00.000000083500,   1.44000,
,,,-00.000000083400,   1.44000,
,,,-00.000000083300,   1.44000,
,,,-00.000000083200,   1.44000,
,,,-00.000000083100,   1.44000,
,,,-00.000000083000,   1.44000,
,,,-00.000000082900,   1.44000,
,,,-00.000000082800,   1.44000,
,,,-00.000000082700,   1.44000,
,,,-00.000000082600,   1.52000,
,,,-00.000000082500,   1.52000,
,,,-00.000000082400,   1.52000,
,,,-00.000000082300,   1.60000,
,,,-00.000000082200,   1.60000,
,,,-00.000000082100,   1.60000,
,,,-00.000000082000,   1.68000,
,,,-00.000000081900,   1.68000,
,,,-00.000000081800,   1.76000,
,,,-00.000000081700,   1.76000,
,,,-00.000000081600,   1.84000,
,,,-00.000000081500,   1.84000,
,,,-00.000000081400,   1.84000,
,,,-00.000000081300,   1.92000,
,,,-00.000000081200,   1.92000,
,,,-00.000000081100,   2.00000,
,,,-00.000000081000,   2.00000,
,,,-00.000000080900,   2.00000,
,,,-00.000000080800,   2.08000,
,,,-00.000000080700,   2.08000,
,,,-00.000000080600,   2.16000,
,,,-00.000000080500,   2.16000,
,,,-00.000000080400,   2.16000,
,,,-00.000000080300,   2.24000,
,,,-00.000000080200,   2.24000,
,,,-00.000000080100,   2.32000,
,,,-00.000000080000,   2.32000,
,,,-00.000000079900,   2.32000,
,,,-00.000000079800,   2.40000,
,,,-00.000000079700,   2.40000,
,,,-00.000000079600,   2.48000,
,,,-00.000000079500,   2.48000,
,,,-00.000000079400,   2.48000,
,,,-00.000000079300,   2.56000,
,,,-00.000000079200,   2.56000,
,,,-00.000000079100,   2.56000,
,,,-00.000000079000,   2.64000,
,,,-00.000000078900,   2.64000,
,,,-00.000000078800,   2.64000,
,,,-00.000000078700,   2.64000,
,,,-00.000000078600,   2.72000,
,,,-00.000000078500,   2.72000,
,,,-00.000000078400,   2.72000,
,,,-00.000000078300,   2.72000,
,,,-00.000000078200,   2.80000,
,,,-00.000000078100,   2.80000,
,,,-00.000000078000,   2.80000,
,,,-00.000000077900,   2.80000,
,,,-00.000000077800,   2.80000,
,,,-00.000000077700,   2.88000,
,,,-00.000000077600,   2.88000,
,,,-00.000000077500,   2.88000,
,,,-00.000000077400,   2.88000,
,,,-00.000000077300,   2.88000,
,,,-00.000000077200,   2.88000,
,,,-00.000000077100,   2.88000,
,,,-00.000000077000,   2.88000,
,,,-00.000000076900,   2.88000,
,,,-00.000000076800,   2.88000,
,,,-00.000000076700,   2.88000,
,,,-00.000000076600,   2.88000,
,,,-00.000000076500,   2.88000,
,,,-00.000000076400,   2.88000,
,,,-00.000000076300,   2.88000,
,,,-00.000000076200,   2.88000,
,,,-00.000000076100,   2.88000,
,,,-00.000000076000,   2.88000,
,,,-00.000000075900,   2.88000,
,,,-00.000000075800,   2.88000,
,,,-00.000000075700,   2.88000,
,,,-00.000000075600,   2.96000,
,,,-00.000000075500,   2.96000,
,,,-00.000000075400,   2.96000,
,,,-00.000000075300,   2.96000,
,,,-00.000000075200,   2.96000,
,,,-00.000000075100,   2.96000,
,,,-00.000000075000,   3.04000,
,,,-00.000000074900,   3.04000,
,,,-00.000000074800,   3.04000,
,,,-00.000000074700,   3.04000,
,,,-00.000000074600,   3.12000,
,,,-00.000000074500,   3.12000,
,,,-00.000000074400,   3.12000,
,,,-00.000000074300,   3.12000,
,,,-00.000000074200,   3.20000,
,,,-00.000000074100,   3.20000,
,,,-00.000000074000,   3.20000,
,,,-00.000000073900,   3.20000,
,,,-00.000000073800,   3.28000,
,,,-00.000000073700,   3.28000,
,,,-00.000000073600,   3.36000,
,,,-00.000000073500,   3.36000,
,,,-00.000000073400,   3.44000,
,,,-00.000000073300,   3.44000,
,,,-00.000000073200,   3.52000,
,,,-00.000000073100,   3.52000,
,,,-00.000000073000,   3.60000,
,,,-00.000000072900,   3.68000,
,,,-00.000000072800,   3.68000,
,,,-00.000000072700,   3.76000,
,,,-00.000000072600,   3.84000,
,,,-00.000000072500,   3.84000,
,,,-00.000000072400,   3.92000,
,,,-00.000000072300,   4.00000,
,,,-00.000000072200,   4.00000,
,,,-00.000000072100,   4.08000,
,,,-00.000000072000,   4.16000,
,,,-00.000000071900,   4.24000,
,,,-00.000000071800,   4.32000,
,,,-00.000000071700,   4.40000,
,,,-00.000000071600,   4.48000,
,,,-00.000000071500,   4.56000,
,,,-00.000000071400,   4.64000,
,,,-00.000000071300,   4.72000,
,,,-00.000000071200,   4.80000,
,,,-00.000000071100,   4.96000,
,,,-00.000000071000,   5.04000,
,,,-00.000000070900,   5.12000,
,,,-00.000000070800,   5.28000,
,,,-00.000000070700,   5.36000,
,,,-00.000000070600,   5.52000,
,,,-00.000000070500,   5.60000,
,,,-00.000000070400,   5.68000,
,,,-00.000000070300,   5.84000,
,,,-00.000000070200,   5.92000,
,,,-00.000000070100,   6.08000,
,,,-00.000000070000,   6.16000,
,,,-00.000000069900,   6.32000,
,,,-00.000000069800,   6.40000,
,,,-00.000000069700,   6.56000,
,,,-00.000000069600,   6.72000,
,,,-00.000000069500,   6.80000,
,,,-00.000000069400,   6.96000,
,,,-00.000000069300,   7.12000,
,,,-00.000000069200,   7.20000,
,,,-00.000000069100,   7.36000,
,,,-00.000000069000,   7.52000,
,,,-00.000000068900,   7.68000,
,,,-00.000000068800,   7.76000,
,,,-00.000000068700,   7.92000,
,,,-00.000000068600,   8.08000,
,,,-00.000000068500,   8.16000,
,,,-00.000000068400,   8.32000,
,,,-00.000000068300,   8.40000,
,,,-00.000000068200,   8.56000,
,,,-00.000000068100,   8.64000,
,,,-00.000000068000,   8.80000,
,,,-00.000000067900,   8.88000,
,,,-00.000000067800,   9.04000,
,,,-00.000000067700,   9.12000,
,,,-00.000000067600,   9.28000,
,,,-00.000000067500,   9.36000,
,,,-00.000000067400,   9.44000,
,,,-00.000000067300,   9.52000,
,,,-00.000000067200,   9.68000,
,,,-00.000000067100,   9.76000,
,,,-00.000000067000,   9.84000,
,,,-00.000000066900,   9.92000,
,,,-00.000000066800,  10.00000,
,,,-00.000000066700,  10.08000,
,,,-00.000000066600,  10.16000,
,,,-00.000000066500,  10.16000,
,,,-00.000000066400,  10.24000,
,,,-00.000000066300,  10.32000,
,,,-00.000000066200,  10.32000,
,,,-00.000000066100,  10.40000,
,,,-00.000000066000,  10.40000,
,,,-00.000000065900,  10.48000,
,,,-00.000000065800,  10.48000,
,,,-00.000000065700,  10.48000,
,,,-00.000000065600,  10.56000,
,,,-00.000000065500,  10.56000,
,,,-00.000000065400,  10.56000,
,,,-00.000000065300,  10.56000,
,,,-00.000000065200,  10.56000,
,,,-00.000000065100,  10.64000,
,,,-00.000000065000,  10.64000,
,,,-00.000000064900,  10.64000,
,,,-00.000000064800,  10.64000,
,,,-00.000000064700,  10.64000,
,,,-00.000000064600,  10.64000,
,,,-00.000000064500,  10.64000,
,,,-00.000000064400,  10.56000,
,,,-00.000000064300,  10.56000,
,,,-00.000000064200,  10.56000,
,,,-00.000000064100,  10.56000,
,,,-00.000000064000,  10.56000,
,,,-00.000000063900,  10.56000,
,,,-00.000000063800,  10.48000,
,,,-00.000000063700,  10.48000,
